Section20 Model evaluation | openair
…
options(digits = 2) ## don't display too many decimal places
modStats(subset(modTest, site == "Harwell"), 
         obs = "o3", mod = "mod",
         type = c("season", "group"), rank = "group")

## # A tibble: 36 x 12
## # Groups:   season [4]
##    season group     n  FAC2     MB   MGE     NMB  NMGE  RMSE     r      COE
##    <ord>  <fct> <int> <dbl>  <dbl> <dbl>   <dbl> <dbl> <dbl> <dbl>    <dbl>
##  1 sprin… mode…  1905 0.875   8.58  16.5  0.137  0.263  21.9 0.576  0.0747 
##  2 sprin… mode…  1905 0.876  -2.04  16.8 -0.0325 0.268  21.8 0.452  0.0584 
##  3 sprin… mode…  1905 0.872  11.9   17.7  0.190  0.282  23.7 0.519  0.00818
##  4 sprin… mode…  1905 0.885   4.98  18.1  0.0793 0.289  23.9 0.361 -0.0151 
##  5 sprin… mode…  1905 0.870  10.8   19.5  0.172  0.311  24.0 0.588 -0.0940 
##  6 sprin… mode…  1825 0.821   7.79  20.0  0.123  0.317  25.8 0.480 -0.118  
##  7 sprin… mode…  1905 0.786 -13.7   21.4 -0.218  0.340  26.1 0.531 -0.195  
##  8 sprin… mode…  1905 0.732 -13.4   24.3 -0.213  0.388  29.8 0.312 -0.362  
##  9 sprin… mode…  1905 0.743   1.01  24.9  0.0161 0.396  32.8 0.264 -0.392  
## 10 summe… mode…  2002 0.918   3.83  15.5  0.0632 0.256  20.9 0.750  0.317  
## # … with 26 more rows, and 1 more variable: IOA <dbl>
…
