Section3 Accessing UK Air Quality Data | The openair book
…
library(openair)
library(tidyverse)

3.2 Site Meta Data

The first question is, what sites are available and what do they measure? Users can access the details of air pollution monitoring sites using
the importMeta function. The user only needs to provide the
network name and (optionally) whether all data should be returned. By
default only site type, latitude and longitude are returned.

aurn_meta <- importMeta(source = "aurn")
aurn_meta

## # A tibble: 273 x 5
##    site                           code  latitude longitude site_type       
##    <chr>                          <chr>    <dbl>     <dbl> <chr>           
##  1 Aberdeen                       ABD       57.2     -2.09 Urban Background
##  2 Aberdeen Union Street Roadside ABD7      57.1     -2.11 Urban Traffic   
##  3 Aberdeen Wellington Road       ABD8      57.1     -2.09 Urban Traffic   
##  4 Armagh Roadside                ARM6      54.4     -6.65 Urban Traffic   
##  5 Aston Hill                     AH        52.5     -3.03 Rural Background
##  6 Auchencorth Moss               ACTH      55.8     -3.24 Rural Background
##  7 Ballymena Antrim Road          BAAR      54.9     -6.27 Urban Traffic   
##  8 Ballymena Ballykeel            BALM      54.9     -6.25 Urban Background
##  9 Barnsley                       BARN      53.6     -1.48 Urban Background
## 10 Barnsley 12                    BAR2      53.6     -1.49 Urban Background
## # … with 263 more rows
…
