17 Dilution lines and pollutant ratios – The openair book
…
aq <- importAURN("my1", year = 2022, meteo = FALSE)
met <- importNOAA(year = 2022)
aq <- left_join(aq, met, by = "date")

Next we will consider the relationship between PM2.5 and NOx with a 3-hour rolling regression window. The data frame returned (out) has the rolling 3-hour regression fit information and other variables that can be used for plotting and post-processing.

x <- "nox"
y <- "pm2.5"
out <- runRegression(aq, x = x, y = y, run.len = 3)

# look at returned data
out

# A tibble: 7,356 × 12
   date                date_start          date_end            intercept   slope
   <dttm>              <dttm>              <dttm>                  <dbl>   <dbl>
 1 2022-01-24 14:00:00 2022-01-24 13:00:00 2022-01-24 15:00:00     35.5  -0.0611
 2 2022-01-24 15:00:00 2022-01-24 14:00:00 2022-01-24 16:00:00     -8.70  0.297 
 3 2022-01-24 16:00:00 2022-01-24 15:00:00 2022-01-24 17:00:00     31.2  -0.0451
 4 2022-01-24 17:00:00 2022-01-24 16:00:00 2022-01-24 18:00:00     43.5  -0.175 
 5 2022-01-24 18:00:00 2022-01-24 17:00:00 2022-01-24 19:00:00     35.3  -0.0780
 6 2022-01-24 19:00:00 2022-01-24 18:00:00 2022-01-24 20:00:00     33.7  -0.0558
 7 2022-01-24 20:00:00 2022-01-24 19:00:00 2022-01-24 21:00:00     35.1  -0.0710
 8 2022-01-24 21:00:00 2022-01-24 20:00:00 2022-01-24 22:00:00     36.7  -0.0888
 9 2022-01-24 22:00:00 2022-01-24 21:00:00 2022-01-24 23:00:00     60.2  -0.496 
10 2022-01-24 23:00:00 2022-01-24 22:00:00 2022-01-25 00:00:00     41.4  -0.189 
# ℹ 7,346 more rows
# ℹ 7 more variables: r_squared <dbl>, nox_1 <dbl>, nox_2 <dbl>, pm2.5_1 <dbl>,
#   pm2.5_2 <dbl>, delta_nox <dbl>, delta_pm2.5 <dbl>
…
