26 Utility functions – The openair book
…
For statistical analysis there can be short-term autocorrelation present. Being able to choose a longer averaging period is sometimes a useful strategy for minimising autocorrelation.

In aggregating data in this way, there are a couple of other issues that can be useful to deal with at the same time. First, the calculation of proper vector-averaged wind direction is essential. Second, sometimes it is useful to set a minimum number of data points that must be present before the averaging is done. For example, in calculating monthly averages, it may be unwise to not account for data capture if some months only have a few valid points.

When a data capture threshold is set through data.thresh it is necessary for timeAverage to know what the original time interval of the input time series is. The function will try and calculate this interval based on the most common time gap (and will print the assumed time gap to the screen). This works fine most of the time but there are occasions where it may not e.g. when very few data exist in a data frame. In this case the user can explicitly specify the interval through interval in the same format as avg.time e.g. interval = "month". It may also be useful to set start.date and end.date if the time series do not span the entire period of interest. For example, if a time series ended in October and annual means are required, setting end.date to the end of the year will ensure that the whole period is covered and that data.thresh is correctly calculated. The same also goes for a time series that starts later in the year where start.date should be set to the beginning of the year.

All these issues are (hopefully) dealt with by the timeAverage function. The options are shown below, but as ever it is best to check the help that comes with the openair package.

To calculate daily means from hourly (or higher resolution) data:

daily <- timeAverage(mydata, avg.time = "day")
daily

# A tibble: 2,731 × 11
   date                   ws    wd   nox   no2    o3  pm10   so2    co  pm25
   <dttm>              <dbl> <dbl> <dbl> <dbl> <dbl> <dbl> <dbl> <dbl> <dbl>
 1 1998-01-01 00:00:00  6.84  188.  154.  39.4 6.87   18.2  3.15  2.70   NaN
 2 1998-01-02 00:00:00  7.07  223.  132.  39.5 6.48   27.8  3.94  1.77   NaN
 3 1998-01-03 00:00:00 11.0   226.  120.  38.0 8.41   20.2  3.20  1.74   NaN
 4 1998-01-04 00:00:00 11.5   223.  105.  35.3 9.61   21.0  2.96  1.62   NaN
 5 1998-01-05 00:00:00  6.61  237.  175.  46.0 4.96   24.2  4.52  2.13   NaN
 6 1998-01-06 00:00:00  4.38  197.  214.  45.3 1.35   34.6  5.70  2.53   NaN
 7 1998-01-07 00:00:00  7.61  219.  193.  44.9 4.42   31.0  5.67  2.48   NaN
 8 1998-01-08 00:00:00  8.58  216.  161.  43.1 4.96   36    4.68  2.10   NaN
 9 1998-01-09 00:00:00  6.7   206.  163.  38   3.62   38.0  5.13  2.36   NaN
10 1998-01-10 00:00:00  2.98  167.  219.  44.9 0.375  37.0  4.91  2.23   NaN
# ℹ 2,721 more rows
# ℹ 1 more variable: rollingo3 <dbl>

Monthly 95th percentile values:

monthly <- timeAverage(mydata, avg.time = "month", 
                       statistic = "percentile",
                       percentile = 95)
monthly

# A tibble: 90 × 11
   date                   ws    wd   nox   no2    o3  pm10   so2    co  pm25
   <dttm>              <dbl> <dbl> <dbl> <dbl> <dbl> <dbl> <dbl> <dbl> <dbl>
 1 1998-01-01 00:00:00 11.2   45    371   68.6  14    53    11.1  3.99  NA  
 2 1998-02-01 00:00:00  8.16  16.7  524.  92     7    68.9  17.5  5.63  NA  
 3 1998-03-01 00:00:00 10.6   37.6  417.  85    15    61    18.4  4.85  NA  
 4 1998-04-01 00:00:00  8.16  44.4  384   81.5  20    52    14.6  4.17  NA  
 5 1998-05-01 00:00:00  7.56  40.6  300   80    25    61    12.7  3.55  40  
 6 1998-06-01 00:00:00  8.47  50.7  377   74.2  15    53    12.2  4.28  33.9
 7 1998-07-01 00:00:00  9.22  36.7  386.  80.0  NA    52.4  13.9  4.52  32  
 8 1998-08-01 00:00:00  7.92  48.4  337.  87.0  16    58.2  13.0  3.78  38  
 9 1998-09-01 00:00:00  6     66.7  334.  81.3  14    64    18.2  4.25  47  
10 1998-10-01 00:00:00 12     33.9  439.  84    15.1  54    12.0  4.81  33  
# ℹ 80 more rows
# ℹ 1 more variable: rollingo3 <dbl>

2-week averages but only calculate if at least 75% of the data are available:

twoweek <- timeAverage(mydata, avg.time = "2 week", 
                       data.thresh = 75)
twoweek

# A tibble: 196 × 11
   date                   ws    wd   nox   no2    o3  pm10   so2    co  pm25
   <dttm>              <dbl> <dbl> <dbl> <dbl> <dbl> <dbl> <dbl> <dbl> <dbl>
 1 1997-12-29 00:00:00  6.98  212.  167.  41.4  4.63  29.3  4.47  2.17  NA  
 2 1998-01-12 00:00:00  4.91  221.  173.  42.1  4.70  28.8  5.07  1.86  NA  
 3 1998-01-26 00:00:00  2.78  242.  233.  51.4  2.30  34.9  8.07  2.45  NA  
 4 1998-02-09 00:00:00  4.43  215.  276.  57.1  2.63  43.7  8.98  2.94  NA  
 5 1998-02-23 00:00:00  6.89  237.  248.  56.7  4.99  28.8  9.79  2.57  NA  
 6 1998-03-09 00:00:00  2.97  288.  160.  44.8  5.64  32.7  8.65  1.62  NA  
 7 1998-03-23 00:00:00  4.87  192.  224.  53.6  5.52  35.9 10.2   2.34  NA  
 8 1998-04-06 00:00:00  3.24  294.  144.  43.4 10.1   23.8  5.48  1.40  NA  
 9 1998-04-20 00:00:00  4.38  195.  177.  47.6 10.5   31.4  5.54  1.73  NA  
10 1998-05-04 00:00:00  3.97  285.  134.  45.5 10.2   38.6  5.49  1.41  24.6
# ℹ 186 more rows
# ℹ 1 more variable: rollingo3 <dbl>
…
