3 Accessing UK Air Quality Data – The openair book
…
Some examples of usage are shown below. First load the packages we need.

library(openair)
library(tidyverse)

3.2 Site Meta Data

3.2.1 National networks

The first question is, what sites are available and what do they measure? Users can access the details of air pollution monitoring sites using the importMeta() function. The user only needs to provide the network name and (optionally) whether all data should be returned and whether certain periods should be considered. By default only site type, latitude and longitude are returned.

aurn_meta <- importMeta(source = "aurn")
aurn_meta

# A tibble: 295 × 6
   source site                           code  latitude longitude site_type     
   <chr>  <chr>                          <chr>    <dbl>     <dbl> <chr>         
 1 aurn   Aberdeen                       ABD       57.2     -2.09 Urban Backgro…
 2 aurn   Aberdeen Erroll Park           ABD9      57.2     -2.09 Urban Backgro…
 3 aurn   Aberdeen Union Street Roadside ABD7      57.1     -2.11 Urban Traffic 
 4 aurn   Aberdeen Wellington Road       ABD8      57.1     -2.09 Urban Traffic 
 5 aurn   Armagh Roadside                ARM6      54.4     -6.65 Urban Traffic 
 6 aurn   Aston Hill                     AH        52.5     -3.03 Rural Backgro…
 7 aurn   Auchencorth Moss               ACTH      55.8     -3.24 Rural Backgro…
 8 aurn   Ballymena Antrim Road          BAAR      54.9     -6.27 Urban Traffic 
 9 aurn   Ballymena Ballykeel            BALM      54.9     -6.25 Urban Backgro…
10 aurn   Barnsley                       BARN      53.6     -1.48 Urban Backgro…
# ℹ 285 more rows
…
By default, this will return data in “wide” format with a pollutant and its data capture rate in separate columns. Often it is more useful to have “narrow” format data, which is possible to select with the to_narrow option. Furthermore, it is also possible to return site meta data (site type, latitude and longitude) at the same time.

Below is an example of obtaining annual mean data for 2020.

uk_2020 <- importUKAQ(
  year = 2020,
  source = "aurn",
  data_type = "annual",
  meta = TRUE,
  to_narrow = TRUE
)

uk_2020

# A tibble: 3,268 × 10
   source code  site    date                species  value data_capture latitude
   <chr>  <chr> <chr>   <dttm>              <chr>    <dbl>        <dbl>    <dbl>
 1 aurn   ABD   Aberde… 2020-01-01 00:00:00 o3       45.5         0.610     57.2
 2 aurn   ABD   Aberde… 2020-01-01 00:00:00 o3.dai…  57.5        NA         57.2
 3 aurn   ABD   Aberde… 2020-01-01 00:00:00 o3.aot…  NA          NA         57.2
 4 aurn   ABD   Aberde… 2020-01-01 00:00:00 o3.aot…  NA          NA         57.2
 5 aurn   ABD   Aberde… 2020-01-01 00:00:00 somo35  502.          0.607     57.2
 6 aurn   ABD   Aberde… 2020-01-01 00:00:00 no        4.60        0.945     57.2
 7 aurn   ABD   Aberde… 2020-01-01 00:00:00 no2      13.5         0.945     57.2
 8 aurn   ABD   Aberde… 2020-01-01 00:00:00 nox      20.5         0.945     57.2
 9 aurn   ABD   Aberde… 2020-01-01 00:00:00 so2      NA          NA         57.2
10 aurn   ABD   Aberde… 2020-01-01 00:00:00 co       NA          NA         57.2
# ℹ 3,258 more rows
# ℹ 2 more variables: longitude <dbl>, site_type <chr>
…
 [1] "o3"                 "o3.daily.max.8hour" "o3.aot40v"         
 [4] "o3.aot40f"          "somo35"             "no"                
 [7] "no2"                "nox"                "so2"               
[10] "co"                 "pm10"               "nv10"              
[13] "v10"                "pm2.5"              "nv2.5"             
[16] "v2.5"               "gr10"               "gr2.5"             
[19] "o3.summer"         

Now it is easy for example, to select annual mean data from 2020 for NO2 with a data capture rate of at least 80%:

uk_2020 %>%
  filter(species == "no2", data_capture >= 0.8)

# A tibble: 144 × 10
   source code  site     date                species value data_capture latitude
   <chr>  <chr> <chr>    <dttm>              <chr>   <dbl>        <dbl>    <dbl>
 1 aurn   ABD   Aberdeen 2020-01-01 00:00:00 no2     13.5         0.945     57.2
 2 aurn   ABD7  Aberdee… 2020-01-01 00:00:00 no2     23.6         0.982     57.1
 3 aurn   ABD8  Aberdee… 2020-01-01 00:00:00 no2     25.1         0.995     57.1
 4 aurn   AH    Aston H… 2020-01-01 00:00:00 no2      2.81        0.983     52.5
 5 aurn   ARM6  Armagh … 2020-01-01 00:00:00 no2     21.1         0.960     54.4
 6 aurn   BAAR  Ballyme… 2020-01-01 00:00:00 no2     15.6         0.893     54.9
 7 aurn   BALM  Ballyme… 2020-01-01 00:00:00 no2     10.3         0.993     54.9
 8 aurn   BAR3  Barnsle… 2020-01-01 00:00:00 no2     11.9         0.970     53.6
 9 aurn   BBRD  Birkenh… 2020-01-01 00:00:00 no2     16.9         0.984     53.4
10 aurn   BDMA  Bradfor… 2020-01-01 00:00:00 no2     34.4         0.805     53.8
# ℹ 134 more rows
# ℹ 2 more variables: longitude <dbl>, site_type <chr>

For the AURN, it is also possible to return the DAQI (Daily Air Quality Index) by pollutant to save deriving it.

daqi_2020 <- importUKAQ(
  year = 2020,
  source = "aurn",
  data_type = "daqi",
  meta = TRUE
)

daqi_2020

# A tibble: 148,513 × 12
   source code  site      pollutant date                concentration poll_index
   <chr>  <chr> <chr>     <chr>     <dttm>                      <dbl>      <int>
 1 aurn   ABD   Aberdeen  no2       2020-01-01 00:00:00          39.2          1
 2 aurn   ABD   Aberdeen  pm10      2020-01-01 00:00:00          10            1
 3 aurn   ABD   Aberdeen  pm2.5     2020-01-01 00:00:00           9            1
 4 aurn   ABD7  Aberdeen… no2       2020-01-01 00:00:00          42.4          1
 5 aurn   ABD8  Aberdeen… no2       2020-01-01 00:00:00          30.6          1
 6 aurn   ACTH  Auchenco… o3        2020-01-01 00:00:00          57            2
 7 aurn   ACTH  Auchenco… pm10      2020-01-01 00:00:00          14            1
 8 aurn   ACTH  Auchenco… pm2.5     2020-01-01 00:00:00          12            2
 9 aurn   AGRN  Birmingh… no2       2020-01-01 00:00:00          23.2          1
10 aurn   AGRN  Birmingh… o3        2020-01-01 00:00:00          35            2
# ℹ 148,503 more rows
# ℹ 5 more variables: band <fct>, measurement_period <chr>, latitude <dbl>,
#   longitude <dbl>, site_type <chr>
…
