The openair book - 4 Access meteorological data
…
Figure 4.1: Map of returned area of interest. The user can interactively select a site of interest and find its code to import data.

Note that it is just as easy to access all the site information at once because it is quick to use the map to select the site and its code i.e.

getMeta()

We can use the map that is produced to select a site of interest and import the data. For example, to import data for Dublin Airport and look at some of the data:

dublin_met <- importNOAA(code = "039690-99999", year = 2019)

# first few lines of data
dublin_met

# A tibble: 8,760 × 24
   code    station date                latit…¹ longi…²  elev    ws    wd air_t…³
   <fct>   <fct>   <dttm>                <dbl>   <dbl> <dbl> <dbl> <dbl>   <dbl>
 1 039690… DUBLIN… 2019-01-01 00:00:00    53.4   -6.27  73.8  5.07  250     8.93
 2 039690… DUBLIN… 2019-01-01 01:00:00    53.4   -6.27  73.8  4.73  247.    8.1 
 3 039690… DUBLIN… 2019-01-01 02:00:00    53.4   -6.27  73.8  4.07  250     8.47
 4 039690… DUBLIN… 2019-01-01 03:00:00    53.4   -6.27  73.8  4.4   250     8.87
 5 039690… DUBLIN… 2019-01-01 04:00:00    53.4   -6.27  73.8  5.47  257.    8.47
 6 039690… DUBLIN… 2019-01-01 05:00:00    53.4   -6.27  73.8  4.9   260     8.8 
 7 039690… DUBLIN… 2019-01-01 06:00:00    53.4   -6.27  73.8  4.9   260     8.83
 8 039690… DUBLIN… 2019-01-01 07:00:00    53.4   -6.27  73.8  4.4   254.    8.93
 9 039690… DUBLIN… 2019-01-01 08:00:00    53.4   -6.27  73.8  5.27  270     8.93
10 039690… DUBLIN… 2019-01-01 09:00:00    53.4   -6.27  73.8  4.73  263.    8.1 
# … with 8,750 more rows, 15 more variables: atmos_pres <dbl>,
#   visibility <dbl>, dew_point <dbl>, RH <dbl>, ceil_hgt <dbl>, cl_1 <dbl>,
#   cl_2 <dbl>, cl_3 <dbl>, cl <dbl>, cl_1_height <dbl>, cl_2_height <dbl>,
#   cl_3_height <dbl>, precip_12 <dbl>, precip_6 <dbl>, precip <dbl>, and
#   abbreviated variable names ¹​latitude, ²​longitude, ³​air_temp
…
