The openair book - 8 Polar plots
…
Figure 8.13: Use of the polarPlot function to investigate the linear regression slope between PM2.5 and PM10 at Harwell in 2013. In this case the York regression slope is calculated.

8.7 Comparing two time periods

Polar plots can be useful for characterising the presence of different source types. Often the interest is in knowing how things have changed over time. It can be difficult from time series data alone to characterise these changes — and especially whether there is evidence that particular sources have changed their strength.

The polarDiff function has been written to compare polar plot surfaces between two time periods. The main purpose is to highlight whether there is evidence that source strengths may have changed. To illustrate the use of polarDiff data from a site close to a complex steelworks is used (Port Talbot in Wales). Two years will be compared as an example: 2012 and 2019. First, we need to import the air quality data for these two years:

port_talbot <- importAURN(site = "pt4", year = c(2012, 2019))

port_talbot

# A tibble: 17,544 × 18
   site      code  date                   co   nox   no2    no    o3   so2  pm10
   <chr>     <chr> <dttm>              <dbl> <dbl> <dbl> <dbl> <dbl> <dbl> <dbl>
 1 Port Tal… PT4   2012-01-01 00:00:00  0.12    11    11     0    44     3    13
 2 Port Tal… PT4   2012-01-01 01:00:00  0.12    11    11     0    44     0    17
 3 Port Tal… PT4   2012-01-01 02:00:00  0.12    11    11     0    46     0    16
 4 Port Tal… PT4   2012-01-01 03:00:00  0.47    15    15     0    42     3    40
 5 Port Tal… PT4   2012-01-01 04:00:00  0.81    13    13     0    40     5    48
 6 Port Tal… PT4   2012-01-01 05:00:00  1.05    13    13     0    40     8    40
 7 Port Tal… PT4   2012-01-01 06:00:00  1.16    15    13     1    40     8    45
 8 Port Tal… PT4   2012-01-01 07:00:00  1.05    21    19     1    40    11    47
 9 Port Tal… PT4   2012-01-01 08:00:00  1.28    19    17     1    40    11    44
10 Port Tal… PT4   2012-01-01 09:00:00  1.28    23    19     2    38     8    46
# … with 17,534 more rows, and 8 more variables: pm2.5 <dbl>, v10 <dbl>,
#   v2.5 <dbl>, nv10 <dbl>, nv2.5 <dbl>, ws <dbl>, wd <dbl>, air_temp <dbl>
…
