The openair book - 18 Model evaluation
…
There are columns representing the receptor location (site), the date, measured values (o3), model predictions (mod) and the model itself (group). There are numerous ways in which the statistics can be calculated. However, of interest here is how the models perform at a single receptor by season. The seasonal nature of O3 is a very important characteristic and it is worth considering in more detail. The statistics are easy enough to calculate as shown below. In this example a subset of the data is selected to consider only the Harwell site. Second, the type option is used to split the calculations by season and model. Finally, the statistics are grouped by the \(IOA\) for each season. It is now very easy how model performance changes by season and which models perform best in each season.

options(digits = 2) ## don't display too many decimal places
modStats(subset(modTest, site == "Harwell"), 
         obs = "o3", mod = "mod",
         type = c("season", "group"), rank = "group")

# A tibble: 36 × 13
   season     group     n  FAC2     MB   MGE     NMB  NMGE  RMSE     r         P
   <ord>      <fct> <int> <dbl>  <dbl> <dbl>   <dbl> <dbl> <dbl> <dbl>     <dbl>
 1 spring (M… mode…  1905 0.875   8.58  16.5  0.137  0.263  21.9 0.576 1.10e-168
 2 spring (M… mode…  1905 0.876  -2.04  16.8 -0.0325 0.268  21.8 0.452 1.50e- 96
 3 spring (M… mode…  1905 0.872  11.9   17.7  0.190  0.282  23.7 0.519 9.23e-132
 4 spring (M… mode…  1905 0.885   4.98  18.1  0.0793 0.289  23.9 0.361 9.74e- 60
 5 spring (M… mode…  1905 0.870  10.8   19.5  0.172  0.311  24.0 0.588 1.60e-177
 6 spring (M… mode…  1825 0.821   7.79  20.0  0.123  0.317  25.8 0.480 1.36e-105
 7 spring (M… mode…  1905 0.786 -13.7   21.4 -0.218  0.340  26.1 0.531 6.17e-139
 8 spring (M… mode…  1905 0.732 -13.4   24.3 -0.213  0.388  29.8 0.312 3.08e- 44
 9 spring (M… mode…  1905 0.743   1.01  24.9  0.0161 0.396  32.8 0.264 8.39e- 32
10 summer (J… mode…  2002 0.918   3.83  15.5  0.0632 0.256  20.9 0.750 0        
# … with 26 more rows, and 2 more variables: COE <dbl>, IOA <dbl>
…
